{
  "project_info": {
    "project_number": "473990256745",
    "firebase_url": "https://fir-class-fe6c5.firebaseio.com",
    "project_id": "fir-class-fe6c5",
    "storage_bucket": "fir-class-fe6c5.appspot.com"
  },
  "client": [
    {
      "client_info": {
        "mobilesdk_app_id": "1:473990256745:android:38b8dec95230b2b49c2af8",
        "android_client_info": {
          "package_name": "com.example.firebaseauth"
        }
      },
      "oauth_client": [
        {
          "client_id": "473990256745-s57ljbo0ulh9ikkskb8l0p0rho12gh1f.apps.googleusercontent.com",
          "client_type": 1,
          "android_info": {
            "package_name": "com.example.firebaseauth",
            "certificate_hash": "641cb7f624437e7c9d37bfe2e7133ff855acb9d3"
          }
        },
        {
          "client_id": "473990256745-kps96lrdj21p757gdac6121sj3nl3p24.apps.googleusercontent.com",
          "client_type": 3
        }
      ],
      "api_key": [
        {
          "current_key": "AIzaSyANJNyFKq4eCqnAULZ1yMUgDU0-fd1wkvE"
        }
      ],
      "services": {
        "appinvite_service": {
          "other_platform_oauth_client": [
            {
              "client_id": "473990256745-kps96lrdj21p757gdac6121sj3nl3p24.apps.googleusercontent.com",
              "client_type": 3
            }
          ]
        }
      }
    }
  ],
  "configuration_version": "1"
}